gitignore/project_lemmings.sim/sim_1/behav/xsim/simulate.log
Time resolution is 1 ps
                   0areset=1,bump_right=0,bump_left=0,ground=1,dig=0,digging=0,walk_left=1,walk_right=0,aaah=0
                  10areset=0,bump_right=0,bump_left=0,ground=1,dig=0,digging=0,walk_left=1,walk_right=0,aaah=0
                  20areset=0,bump_right=0,bump_left=0,ground=0,dig=0,digging=0,walk_left=1,walk_right=0,aaah=0
                  25areset=0,bump_right=0,bump_left=0,ground=0,dig=0,digging=0,walk_left=0,walk_right=0,aaah=1
                  40areset=0,bump_right=0,bump_left=0,ground=1,dig=0,digging=0,walk_left=0,walk_right=0,aaah=1
                  45areset=0,bump_right=0,bump_left=0,ground=1,dig=0,digging=0,walk_left=1,walk_right=0,aaah=0
                  50areset=0,bump_right=0,bump_left=1,ground=1,dig=0,digging=0,walk_left=1,walk_right=0,aaah=0
                  55areset=0,bump_right=0,bump_left=1,ground=1,dig=0,digging=0,walk_left=0,walk_right=1,aaah=0
                  60areset=0,bump_right=0,bump_left=1,ground=1,dig=1,digging=0,walk_left=0,walk_right=1,aaah=0
                  65areset=0,bump_right=0,bump_left=1,ground=1,dig=1,digging=1,walk_left=0,walk_right=0,aaah=0
                  70areset=0,bump_right=0,bump_left=1,ground=0,dig=1,digging=1,walk_left=0,walk_right=0,aaah=0
                  75areset=0,bump_right=0,bump_left=1,ground=0,dig=1,digging=0,walk_left=0,walk_right=0,aaah=1
                 180areset=1,bump_right=0,bump_left=1,ground=0,dig=1,digging=0,walk_left=1,walk_right=0,aaah=0
                 190areset=0,bump_right=0,bump_left=1,ground=0,dig=1,digging=0,walk_left=1,walk_right=0,aaah=0
                 195areset=0,bump_right=0,bump_left=1,ground=0,dig=1,digging=0,walk_left=0,walk_right=0,aaah=1
$finish called at time : 240 ns : File "C:/Users/aksha/OneDrive/Desktop/coding/verilog/lemmings4.v" Line 108
